digraph FST {
rankdir = LR;	
size = "8.5,11";	
label = "";
center = 1;
orientation = Portrait;
ranksep = "0.4";
nodesep = "0.25";
0 [label = "0", shape = circle, style = bold, fontsize = 14]
0 -> 1 [label = "a", fontsize = 14];
0 -> 2 [label = "ab:ba", fontsize = 14];
0 -> 3 [label = "abc:cba", fontsize = 14];
0 -> 4 [label = "abcd:dcba", fontsize = 14];
1 [label = "1", shape = circle, style = solid, fontsize = 14]
1 -> 2 [label = "b", fontsize = 14];
1 -> 3 [label = "bc:cb", fontsize = 14];
1 -> 4 [label = "bcd:dcb", fontsize = 14];
2 [label = "2", shape = circle, style = solid, fontsize = 14]
2 -> 3 [label = "c", fontsize = 14];
2 -> 4 [label = "cd:dc", fontsize = 14];
3 [label = "3", shape = circle, style = solid, fontsize = 14]
3 -> 4 [label = "d", fontsize = 14];
4 [label = "4", shape = doublecircle, style = solid, fontsize = 14]
}